{
  "location": [
    {
      "id": 73987982,
      "location": {
        "lat": -3.745,
        "lng": -38.523
      },
      "name": "Las Médulas, León, Castilla y León.",
      "description": [
        {
          "main":"En el Bierzo, al noroeste de los Montes Aquilanos y junto al valle del río Sil, se encuentran Las Médulas, fantástico paisaje resultado de las explotaciones auríferas romanas, y declarado Patrimonio Mundial por la UNESCO. Su estampa rojiza simula un paisaje sinuoso y de misterio. Nadie diría que los picudos farallones esconden, bajo sus entrañas, el oro de los romanos. Para extraer el oro que se encontraba en el interior de las montañas, los romanos decidieron utilizar el método conocido como Ruina Montium, con el cual literalmente las montañas se reventaban para así facilitar la recogida final del polvo de oro. Este método implicaba crear  una red de canales de más de 100 kilómetros, en gran parte excavados en las rocas, la cual permitía traer agua de montañas de más altura para luego almacenarlas en lo alto de las montañas que se iban a reventar."
        },

        {
          "sports": ["Bike", "Hiking"]
        },
        {
          "nature": "Durante tu paseo por los senderos que discurren entre los distintos picachos rocosos de Las Médulas, vas a pasar por diversas zonas boscosas donde los reyes son los grandes castaños, con algunos ejemplares que tienen más de 600 años de antigüedad. A destacar que una de las sorpresas que te deparará tu paseo es poder ver los espectaculares y retorcidos troncos de los castaños centenarios que extienden por esta antigua mina de oro de los romanos."
        },
        {
          "food": "Si alguna vez te has perdido en la comarca de El Bierzo, sabes lo que es disfrutar de un buen botillo junto con una copa de vino de la tierra. Si aún no te he convencido para visitar la comarca, los pimientos asados de El Bierzo son una buena excusa, pero si lo tuyo son las frutas, la pera conferencia de El Bierzo y las manzanas reineta son productos estrella en su gastronomía. En una zona que tradicionalmente ha vivido de la minería y de la horticultura,"
        },
        {
          "architecture": "En la zona, tendremos la oportunidad de conocer diferentes Monasterios de origen medieval, como el Monasterio de Sta. María de Carracedo, el Monasterio de San Andrés, el de San Miguel de Dueñas o el de San Pedro de Montes. Y entre ellos, destacamos la Iglesia del antiguo Monasterio de Santiago de Peñalba, en pleno Valle del Silencio y declarada Conjunto Histórico Artístico Nacional, como joya de la arquitectura mozárabe del s. X."
        }
      ],
      "comments": [
        {
          "id": 34849992,
          "comment": "Comentario sobre el lugar"
        },
        {
          "id": 34849992,
          "comment": "Comentario de otro usuario"
        }
      ],
      "rating": 10,
      "images": [
        { "id": 1, "url": "https://casacarreirabierzo.com/wp-content/uploads/2019/03/entorno-medulas.jpg" },
        { "id": 2, "url": "https://i.pinimg.com/originals/4e/e9/d0/4ee9d0c9a922bece62746ce54ec92660.jpg" },
        { "id": 3, "url": "url" },
        { "id": 4, "url": "url" },
        { "id": 5, "url": "url" }
      ]
    },
    {
        "id": 73987999,
        "location": {
          "lat": -3.745,
          "lng": -38.523
        },
        "name": "Cola de Caballo, Valle de Ordesa, Huesca",
        "description": [
          {
            "main":"En pleno Pirineo aragonés, el Valle de Ordesa forma parte junto a Monte Perdido de la red de Parques Nacionales españoles. Asimismo, se incluye dentro de la Reserva de la Biosfera ‘Ordesa-Viñamala’ y, junto a los circos glaciares de la vertiente francesa de los Pirineos, está declarado por la Unesco como Patrimonio Mundial."
          },
          {
            "sports": ["Hiking"]
          },
          {
            "nature": "El Parque Nacional de Ordesa se encuentra en el Pirineo Aragonés, limitando con Francia en la provincia de Huesca. Su pico más alto es el Monte Perdido, desde el cual se forman valles del tipo glaciar (en forma de V). El Valle de Ordesa es el más importante de la zona. El Valle de Ordesa es recorrido por el río Arazas. Este río nace en la famosa cascada Cola de Caballo, La Cola de Caballo (a 1.800 metros de altura) supone un salto de agua de 54 metros, uno de los más altos de España."
          },
          {
            "food": "Se trata de platos contundentes que ayudan a combatir el frío clima de la zona y las largas jornadas de montaña. Se puede empezar con una buena cazuela de judías o unas migas aragonesas, de segundo puedes elegir entre las carnes del valle a la brasa o el cordero al horno o guisado, para terminar un delicioso postre, no hay nada más típico que fruta al vino, como peras o melocotones."
          },
          {
            "architecture": "Torla; Deambulando por sus calles empedradas encontraremos su plaza mayor del siglo XVIII, su antiguo castillo reconvertido en abadía o su museo etnológico. Sin perder detalle de las características chimeneas “espantabrujas”, cuyos diseños antropomorfos tenían antiguamente la finalidad de ahuyentar a las supuestas hechiceras."
          }
        ],
        "comments": [
          {
            "id": 34849992,
            "comment": "Comentario sobre el lugar"
          },
          {
            "id": 34849992,
            "comment": "Comentario de otro usuario"
          }
        ],
        "rating": 10,
        "images": [
          { "id": 6, "url": "https://viajes.nationalgeographic.com.es/medio/2019/01/16/circo-de-soaso-ordesa_496689b1_1500x1005.jpg" },
          { "id": 7, "url": "https://www.turismodearagon.com/wp-content/uploads/2014/05/parador_de_bielsa_4_-_z_photo.jpg" },
          { "id": 8, "url": "https://elviajero.elpais.com/elviajero/imagenes/2018/07/05/actualidad/1530779364_909211_1530805209_sumario_grande.jpg" },
          { "id": 9, "url": "https://aws.traveler.es/prod/designs/v1/assets/3000x2002/191640.jpg" },
          { "id": 10, "url": "https://aws.traveler.es/prod/designs/v1/assets/2000x1333/150327.jpg" }
        ]
      },
      {
        "id": 73987333,
        "location": {
          "lat": -3.745,
          "lng": -38.523
        },
        "name": "Selva de Irati, Navarra",
        "description": [
          {
            "main":"Irati es una tupida masa verde entre brumas que casi no deja pasar la luz del sol, un prodigioso ecosistema que cubre 20.000 hectáreas de los valles y montes del norte de Navarra hasta llegar a Cize y Soule, ya en el sur de Francia. La arrebatadora belleza de esta foresta, compuesta de hayas y abetos en su mayor parte, muestra todas las gamas del verde, hasta que llega el espectáculo de la otoñada, en este caso, algo así como una primavera teñida de marrones increíbles. El alto índice de precipitaciones anuales da origen a una abundante vida animal y vegetal difícil de igualar en otros lugares.."
          },
          {
            "sports": ["Bike", "Hike"]
          },
          {
            "nature": "Incontables rincones perdidos en la espesura de los bosques o en los luminosos pastizales de las zonas altas sirven de refugio y hábitat a valiosas poblaciones de animales salvajes. Aves, como reyezuelos, pinzones, petirrojos, pito negros o dorsiblancos, especies acuáticas como las truchas y otras como zorros, jabalís, martas y ciervos... Estos últimos son protagonistas del otoño en la Selva de Irati ya que es su época de celo y la berrea con la que intentan conquistar a las hembras resuena por todo el bosque."
          },
          {
            "food": "Descripción Lorem sobre La comida"
          },
          {
            "architecture": " EL SANTUARIO DE NUESTRA SEÑORA DE MUSKILDA. Se encuentra a cuatro kilómetros del casco urbano, sobre una colina a más de 1.000 metros de altitud. La belleza del edificio románico del siglo XII, sobrio y elegante, queda refrendada por las espectaculares vistas que podremos disfrutar desde este rincón."
          }
        ],
        "comments": [
          {
            "id": 34849992,
            "comment": "Comentario sobre el lugar"
          },
          {
            "id": 34849992,
            "comment": "Comentario de otro usuario"
          }
        ],
        "rating": 10,
        "images": [
          { "id": 11, "url": "https://img1.viajar.elperiodico.com/59/5e/18/selva-irati.jpg" },
          { "id": 12, "url": "https://www.campingosate.net/images/6gallery_135/original/virgen-de-muskilda.jpg" },
          { "id": 13, "url": "http://proximaparadaelmundo.com/wp-content/uploads/2019/04/thumbnail_IMGP7707.jpg" },
          { "id": 14, "url": "https://aws.traveler.es/prod/designs/v1/assets/1200x701/102754.jpg" },
          { "id": 15, "url": "https://upload.wikimedia.org/wikipedia/commons/7/7d/Selva_de_Irati.Navarra._%2810581488336%29.jpg" }
        ]
      }
  ]
}
